…
``` r
hotels %>%
  purrr::map_df(function(x) length(unique(x))) %>%
  tidyr::pivot_longer(
    cols = everything(),
    values_to = 'unique_values',
    names_to = 'variable'
  ) %>%
  arrange(desc(unique_values))
```

    ## # A tibble: 32 x 2
    ##    variable                       unique_values
    ##    <chr>                                  <int>
    ##  1 adr                                     8879
    ##  2 reservation_status_date                  926
    ##  3 lead_time                                479
    ##  4 company                                  353
    ##  5 agent                                    334
    ##  6 country                                  178
    ##  7 days_in_waiting_list                     128
    ##  8 previous_bookings_not_canceled            73
    ##  9 arrival_date_week_number                  53
    ## 10 stays_in_week_nights                      35
    ## # … with 22 more rows
…
